<svg width="238" height="55" viewBox="0 0 238 55" fill="none" xmlns="http://www.w3.org/2000/svg">
<path d="M92.9383 33.4147C92.9383 36.8865 88.2767 38.671 83.4208 38.671C77.1234 38.671 73.2055 35.6968 73.2055 30.6921V20.6713C73.2055 15.6609 76.9232 12.6924 83.2206 12.6924C89.5179 12.6924 92.6408 15.6666 92.6408 20.1794C92.6408 24.1946 89.9126 27.5177 82.6257 27.5177C80.9384 27.5177 78.3589 27.1745 77.1692 26.328V29.9486C77.1692 33.4204 79.1024 35.2049 83.7125 35.2049C88.0251 35.2049 91.6456 33.4204 91.6456 29.9486C92.5379 31.2355 92.9383 32.3737 92.9383 33.4147ZM77.1692 23.1536C77.2207 23.2509 80.1949 24.0402 82.3226 24.0402C87.0356 24.0402 88.6714 22.6045 88.6714 20.1737C88.6714 17.6456 87.2815 15.9125 83.2206 15.9125C78.8107 15.9125 77.1692 17.9487 77.1692 21.4148V23.1536Z" fill="white"/>
<path d="M119.26 16.4101L123.275 29.2964C124.562 33.5118 125.655 36.9836 126.495 38.2706C126.495 38.2706 126.049 38.4193 125.209 38.4193C121.245 38.4193 120.198 33.9579 119.06 30.2402L118.07 27.0143H103.794L102.85 30.2402C101.758 33.9522 100.671 38.4193 96.7018 38.4193C95.8553 38.4193 95.4149 38.2706 95.4149 38.2706C96.2099 36.9836 97.2966 33.5118 98.6407 29.2964L102.656 16.4101C105.979 5.70287 111.035 2.6257 110.984 2.57422C110.932 2.6257 115.891 5.70287 119.26 16.4101ZM104.835 23.5997H117.029L115.296 17.697C113.312 10.9535 110.932 8.128 110.984 8.128C110.984 8.128 108.553 10.9535 106.574 17.697L104.835 23.5997Z" fill="white"/>
<path d="M138.192 12.6924C143.3 12.6924 147.366 14.0823 147.366 17.4511C147.366 18.5436 146.92 19.882 145.931 21.4206C145.931 18.0002 143.305 16.1642 138.198 16.1642C133.588 16.1642 132.45 17.4511 132.45 20.4311C132.45 26.328 148.413 19.6418 148.413 31.1383C148.413 35.6511 144.993 38.671 138.198 38.671C132.993 38.671 128.629 37.2354 128.629 33.7636C128.629 32.6711 129.029 31.43 129.973 29.9428C129.973 33.4147 133.096 35.1992 138.198 35.1992C143.305 35.1992 144.444 33.3632 144.444 30.8866C144.444 23.7485 128.48 30.8408 128.48 20.4253C128.48 15.4207 131.901 12.6924 138.192 12.6924Z" fill="white"/>
<path d="M162.089 12.6924C167.196 12.6924 171.257 14.0823 171.257 17.4511C171.257 18.5436 170.811 19.882 169.822 21.4206C169.822 18.0002 167.196 16.1642 162.089 16.1642C157.479 16.1642 156.335 17.4511 156.335 20.4311C156.335 26.328 172.298 19.6418 172.298 31.1383C172.298 35.6511 168.878 38.671 162.083 38.671C156.878 38.671 152.514 37.2354 152.514 33.7636C152.514 32.6711 152.909 31.43 153.853 29.9428C153.853 33.4147 156.981 35.1992 162.083 35.1992C167.191 35.1992 168.329 33.3632 168.329 30.8866C168.329 23.7485 152.365 30.8408 152.365 20.4253C152.371 15.4207 155.797 12.6924 162.089 12.6924Z" fill="white"/>
<path d="M177.749 4.06641H180.878C181.324 4.06641 181.719 4.51254 181.719 4.95867V8.23031H178.641C178.15 8.23031 177.749 7.83566 177.749 7.33805V4.06641ZM177.749 12.9376C177.749 12.9376 181.719 12.8861 181.719 15.4199V38.4186C181.719 38.4186 177.749 38.4186 177.749 35.942V12.9376Z" fill="white"/>
<path d="M196.887 12.6924C201.995 12.6924 206.061 14.0823 206.061 17.4511C206.061 18.5436 205.615 19.882 204.626 21.4206C204.626 18.0002 202.001 16.1642 196.887 16.1642C192.283 16.1642 191.139 17.4511 191.139 20.4311C191.139 26.328 207.102 19.6418 207.102 31.1383C207.102 35.6511 203.682 38.671 196.887 38.671C191.682 38.671 187.318 37.2354 187.318 33.7636C187.318 32.6711 187.713 31.43 188.657 29.9428C188.657 33.4147 191.78 35.1992 196.887 35.1992C201.995 35.1992 203.133 33.3632 203.133 30.8866C203.133 23.7485 187.169 30.8408 187.169 20.4253C187.169 15.4207 190.59 12.6924 196.887 12.6924Z" fill="white"/>
<path d="M212.553 7.38965C212.553 7.38965 216.517 7.44113 216.517 9.91773V14.0302H226.881C226.881 14.0302 226.83 17.4505 224.404 17.4505H216.517V29.2959C216.517 32.865 217.758 35.1986 221.67 35.1986C225.091 35.1986 228.013 33.3168 228.013 29.9422C228.957 31.3321 229.352 32.5675 229.352 33.6142C229.352 36.9831 225.285 38.6704 221.27 38.6704C215.968 38.6704 212.548 35.6962 212.548 30.6915V7.38965H212.553Z" fill="white"/>
<path d="M74.6811 50.2071C74.6182 50.2071 74.0234 50.1899 74.0234 49.801V44.5732H76.1568C77.3408 44.5732 78.4561 44.9736 78.4561 46.4321V48.3482C78.4561 49.801 77.3408 50.2071 76.1568 50.2071H74.6811ZM74.6983 45.128V49.6466H76.1568C77.0662 49.6466 77.7812 49.3091 77.7812 48.2624V46.5008C77.7812 45.4541 77.0662 45.128 76.1568 45.128H74.6983Z" fill="white"/>
<path d="M85.8001 47.41V49.6464H88.6714C88.6714 49.6808 88.66 50.2012 88.271 50.2012H85.8001C85.8001 50.2012 85.1252 50.2012 85.1252 49.7951V44.5674H88.6714C88.6714 44.5674 88.6714 45.1222 88.271 45.1222H85.8001V46.8495H87.659C88.2081 46.8495 88.3511 46.7294 88.3511 46.7294C88.3511 46.9696 88.2767 47.41 87.7848 47.41H85.8001Z" fill="white"/>
<path d="M98.5664 48.7886L98.9324 49.4006C98.9324 49.4006 98.8524 48.9831 98.8524 48.7371V44.5732C98.8524 44.5732 99.5273 44.5732 99.5273 44.9736V50.2872C98.6636 50.2872 98.4348 49.7667 98.4348 49.7667L95.7294 45.3969C95.7294 45.3969 95.8095 45.7858 95.8095 46.1233V50.2929C95.8095 50.2929 95.1346 50.2929 95.1346 49.8925V44.5847C95.5922 44.5847 95.9696 44.5847 96.2213 44.9851L98.5664 48.7886Z" fill="white"/>
<path d="M108.164 45.128V50.2872C108.164 50.2872 107.489 50.2872 107.489 49.8868V45.128H106.219C105.727 45.128 105.659 44.6876 105.659 44.4531C105.659 44.4531 105.802 44.5732 106.351 44.5732H109.336C109.886 44.5732 110.029 44.4531 110.029 44.4531C110.029 44.6934 109.954 45.128 109.468 45.128H108.164Z" fill="white"/>
<path d="M118.808 46.6892L119.46 48.7826C119.666 49.469 119.849 50.0295 119.981 50.2411C119.981 50.2411 119.906 50.264 119.769 50.264C119.129 50.264 118.957 49.5433 118.774 48.9371L118.614 48.4166H116.297L116.143 48.9371C115.966 49.5433 115.788 50.264 115.142 50.264C115.005 50.264 114.93 50.2411 114.93 50.2411C115.062 50.0295 115.233 49.469 115.457 48.7826L116.109 46.6892C116.646 44.9505 117.47 44.4528 117.458 44.4414C117.458 44.4471 118.259 44.9505 118.808 46.6892ZM116.469 47.8503H118.448L118.168 46.8894C117.847 45.797 117.458 45.3394 117.47 45.3394C117.47 45.3394 117.075 45.797 116.755 46.8894L116.469 47.8503Z" fill="white"/>
<path d="M126.764 50.2071C126.764 50.2071 126.089 50.2071 126.089 49.801V44.4932C126.089 44.4932 126.764 44.4932 126.764 44.8935V49.6523H128.76C129.309 49.6523 129.452 49.5322 129.452 49.5322C129.452 49.7724 129.378 50.2071 129.052 50.2071H126.764Z" fill="white"/>
<path d="M144.941 49.7042C145.851 49.7042 146.331 49.2752 146.331 48.6346C146.331 46.9416 142.756 48.2571 142.756 46.0894C142.756 44.8539 143.712 44.4707 144.901 44.4707C145.856 44.4707 146.846 44.6366 146.846 45.3973C146.846 45.5746 146.789 45.7919 146.663 46.0493C146.663 45.2028 145.811 45.0713 144.901 45.0713C144.032 45.0713 143.466 45.3058 143.466 46.015C143.466 47.5364 147.035 46.1809 147.035 48.5888C147.035 49.7213 146.12 50.2933 144.936 50.2933C143.98 50.2933 142.877 50.1332 142.877 49.361C142.877 49.1837 142.928 48.9663 143.06 48.7204C143.065 49.5669 144.032 49.7042 144.941 49.7042Z" fill="white"/>
<path d="M157.908 48.5137C157.908 49.6347 157.199 50.2982 155.683 50.2982C154.167 50.2982 153.464 49.6347 153.464 48.5137V46.2658C153.464 45.1448 154.167 44.4756 155.683 44.4756C157.199 44.4756 157.908 45.1448 157.908 46.2658V48.5137ZM157.233 46.3631C157.233 45.528 156.987 45.0304 155.677 45.0304C154.39 45.0304 154.139 45.528 154.139 46.3631V48.4107C154.139 49.2458 154.39 49.7434 155.677 49.7434C156.987 49.7434 157.233 49.2458 157.233 48.4107V46.3631Z" fill="white"/>
<path d="M165.252 50.2071C165.252 50.2071 164.577 50.2071 164.577 49.801V44.4932C164.577 44.4932 165.252 44.4932 165.252 44.8935V49.6523H167.248C167.797 49.6523 167.94 49.5322 167.94 49.5322C167.94 49.7724 167.871 50.2071 167.54 50.2071H165.252Z" fill="white"/>
<path d="M178.453 48.5997C178.453 49.7322 177.417 50.2927 176.234 50.2927C175.05 50.2927 174.014 49.7322 174.014 48.5997V44.4873C174.014 44.4873 174.683 44.4873 174.683 44.8877V48.4739C174.683 49.2804 175.324 49.7036 176.234 49.7036C177.143 49.7036 177.778 49.2804 177.778 48.4739V44.4873C177.778 44.4873 178.453 44.4873 178.453 44.8877V48.5997Z" fill="white"/>
<path d="M186.924 45.128V50.2872C186.924 50.2872 186.249 50.2872 186.249 49.8868V45.128H184.979C184.487 45.128 184.413 44.6876 184.413 44.4531C184.413 44.4531 184.556 44.5732 185.105 44.5732H188.09C188.639 44.5732 188.782 44.4531 188.782 44.4531C188.782 44.6934 188.708 45.128 188.216 45.128H186.924Z" fill="white"/>
<path d="M194.908 44.4932C194.908 44.4932 195.583 44.4932 195.583 44.8935V50.2872C195.583 50.2872 194.908 50.2872 194.908 49.8868V44.4932Z" fill="white"/>
<path d="M206.691 48.5137C206.691 49.6347 205.981 50.2982 204.471 50.2982C202.95 50.2982 202.252 49.6347 202.252 48.5137V46.2658C202.252 45.1448 202.95 44.4756 204.471 44.4756C205.981 44.4756 206.691 45.1448 206.691 46.2658V48.5137ZM206.016 46.3631C206.016 45.528 205.77 45.0304 204.466 45.0304C203.179 45.0304 202.927 45.528 202.927 46.3631V48.4107C202.927 49.2458 203.179 49.7434 204.466 49.7434C205.77 49.7434 206.016 49.2458 206.016 48.4107V46.3631Z" fill="white"/>
<path d="M216.786 48.7886L217.158 49.4006C217.158 49.4006 217.078 48.9831 217.078 48.7371V44.5732C217.078 44.5732 217.752 44.5732 217.752 44.9736V50.2872C216.894 50.2872 216.66 49.7667 216.66 49.7667L213.955 45.3969C213.955 45.3969 214.035 45.7858 214.035 46.1233V50.2929C214.035 50.2929 213.36 50.2929 213.36 49.8925V44.5847C213.817 44.5847 214.201 44.5847 214.446 44.9851L216.786 48.7886Z" fill="white"/>
<path d="M226.441 49.7042C227.35 49.7042 227.836 49.2752 227.836 48.6346C227.836 46.9416 224.267 48.2571 224.267 46.0894C224.267 44.8539 225.217 44.4707 226.406 44.4707C227.361 44.4707 228.351 44.6366 228.351 45.3973C228.351 45.5746 228.3 45.7919 228.168 46.0493C228.168 45.2028 227.321 45.0713 226.406 45.0713C225.537 45.0713 224.976 45.3058 224.976 46.015C224.976 47.5364 228.551 46.1809 228.551 48.5888C228.551 49.7213 227.63 50.2933 226.446 50.2933C225.491 50.2933 224.393 50.1332 224.393 49.361C224.393 49.1837 224.444 48.9663 224.576 48.7204C224.57 49.5669 225.531 49.7042 226.441 49.7042Z" fill="white"/>
<path d="M233.825 37.0062H234.357V35.4905H234.934L235.895 37.0062H236.473L235.461 35.4505C235.987 35.3933 236.393 35.1245 236.393 34.4839C236.393 33.809 235.998 33.4772 235.157 33.4772H233.825V37.0062ZM234.362 33.9119H235.072C235.438 33.9119 235.861 33.9691 235.861 34.4553C235.861 35.0215 235.398 35.0501 234.917 35.0501H234.362V33.9119ZM231.96 35.2446C231.96 36.9662 233.333 38.2646 234.98 38.2646C236.622 38.2646 238 36.9662 238 35.2446C238 33.523 236.622 32.2246 234.98 32.2246C233.333 32.2246 231.96 33.5287 231.96 35.2446ZM232.492 35.2446C232.492 33.7861 233.59 32.665 234.974 32.665C236.353 32.665 237.457 33.7861 237.457 35.2446C237.457 36.7031 236.353 37.8241 234.974 37.8241C233.59 37.8241 232.492 36.7088 232.492 35.2446Z" fill="white"/>
<path d="M43.7607 34.7698C49.6348 19.2523 40.6492 1.70446 28.4835 0L27.8143 32.0472L43.7493 34.7755H43.7607V34.7698Z" fill="#D93A31"/>
<path d="M18.5142 44.081C28.8439 57.0017 48.3307 57.8882 55.8692 48.0676L28.4835 31.3662L18.5199 44.0753L18.5142 44.081Z" fill="#FAA61A"/>
<path d="M23.1757 17.2793C6.97192 19.8817 -3.52936 36.5374 1.09784 48.0682L28.4835 32.7224L23.1814 17.285L23.1757 17.2793Z" fill="#42C1C7"/>
<path d="M13.2063 34.7698C7.33226 19.2523 16.3178 1.70446 28.4835 0V32.0472L13.2178 34.7755H13.2063V34.7698Z" fill="#EF4136"/>
<path d="M38.4529 44.081C28.1289 57.0017 8.63634 57.8883 1.09784 48.0676L28.4835 32.0469L38.4414 44.081H38.4529Z" fill="#64CADC"/>
<path d="M33.7914 17.2793C49.9951 19.8817 60.4964 36.5374 55.8749 48.0682C55.8749 48.0682 28.4892 32.0417 28.4892 32.0474L33.7914 17.2907V17.2793Z" fill="#FBB040"/>
<path d="M43.9838 32.0471C43.9838 40.7181 37.0401 47.7476 28.4892 47.7476C19.9326 47.7476 12.989 40.7181 12.989 32.0471C12.989 23.3761 19.9269 16.3467 28.4892 16.3467C37.0401 16.341 43.9838 23.3761 43.9838 32.0471Z" fill="white"/>
<path d="M25.1318 41.5368C24.3883 41.0621 23.8563 40.4157 23.5875 39.5635C23.4045 38.9858 23.3358 38.3853 23.3702 37.7847C23.4045 37.1041 23.4617 36.4234 23.5303 35.7428C23.6047 34.9821 23.6905 34.2156 23.679 33.4435C23.6676 32.5913 23.4388 31.7905 23.1128 31.0183C22.8268 30.3434 22.5408 29.6628 22.2663 28.9879C22.0032 28.3358 21.7687 27.6666 21.6543 26.9688C21.5627 26.3683 21.5513 25.7791 21.7858 25.2072C21.9746 24.7553 22.2891 24.4236 22.6838 24.1548C23.0441 23.9145 23.4445 23.8001 23.8678 23.8059C24.2681 23.8059 24.6571 23.8974 25.0117 24.0747C25.5951 24.3664 26.1613 24.6924 26.7276 25.007C26.8591 25.0814 26.9907 25.1557 27.1222 25.2243C27.4883 25.4074 27.8601 25.579 28.2891 25.5446C28.0889 25.6876 27.8658 25.7277 27.6427 25.6934C27.1909 25.619 26.7505 25.5275 26.2986 25.4302C25.8582 25.333 25.4235 25.2129 24.9659 25.2472C24.5026 25.2758 24.1595 25.4989 23.9478 25.9279C23.7191 26.3969 23.6561 26.8888 23.6962 27.4092C23.7648 28.21 24.0279 28.9536 24.2739 29.7028C24.4569 30.2748 24.6456 30.841 24.7314 31.4416C24.8001 31.9564 24.8001 32.4711 24.76 32.9973C24.6742 34.0326 24.4626 35.0393 24.2967 36.0631C24.1709 36.8238 24.0737 37.5902 24.1023 38.3681C24.1423 39.5006 24.4512 40.5587 25.1032 41.491C25.1146 41.4967 25.1261 41.5196 25.1318 41.5368Z" fill="#A7A9AC"/>
<path d="M25.332 41.7654L25.0861 41.6109C24.3025 41.1076 23.7705 40.4327 23.5017 39.5919C23.3244 39.0314 23.25 38.4251 23.2844 37.7845C23.313 37.0638 23.3816 36.3431 23.4445 35.7369L23.4731 35.4566C23.5418 34.7988 23.6104 34.1239 23.5932 33.449C23.5818 32.6997 23.3988 31.9161 23.0327 31.0525C22.7124 30.3032 22.4379 29.634 22.1862 29.022C21.9574 28.4443 21.7 27.7465 21.5742 26.9858C21.4541 26.248 21.4941 25.6874 21.7115 25.1784C21.8888 24.7494 22.1919 24.3948 22.6438 24.0916C22.9984 23.8514 23.4102 23.7256 23.8563 23.7256C24.2967 23.7256 24.6971 23.8228 25.0575 24.0058C25.4693 24.2118 25.8811 24.4463 26.2815 24.6636C26.4473 24.7551 26.6075 24.8466 26.7734 24.9382C26.8248 24.961 26.8763 24.9896 26.9278 25.0239C27.0079 25.0697 27.0822 25.1155 27.168 25.1555C27.5112 25.3271 27.8772 25.4987 28.2833 25.4644L28.5865 25.4358L28.3405 25.6131C28.1403 25.7618 27.883 25.819 27.6313 25.7789C27.1623 25.7046 26.7104 25.6074 26.2872 25.5158L26.1099 25.4758C25.7267 25.39 25.3663 25.3099 24.9717 25.3271C24.5313 25.3557 24.2167 25.5616 24.0279 25.962C23.8163 26.3852 23.7419 26.8542 23.782 27.3976C23.8449 28.1183 24.0737 28.8161 24.2967 29.4853L24.3539 29.674C24.5427 30.2288 24.7314 30.8065 24.823 31.4242C24.8859 31.8932 24.8916 32.4137 24.8458 32.9971C24.7829 33.7693 24.6514 34.5357 24.5198 35.2793C24.4741 35.5424 24.4283 35.8055 24.3825 36.0686C24.2681 36.7893 24.1538 37.5671 24.1881 38.3564C24.2281 39.5175 24.5598 40.5528 25.1661 41.4393C25.1833 41.4622 25.1947 41.4851 25.2119 41.5137L25.332 41.7654ZM23.8735 23.8915C23.4445 23.8915 23.067 24.0058 22.7353 24.2289C22.3177 24.5149 22.0318 24.8409 21.8659 25.2413C21.6657 25.7217 21.6257 26.2537 21.7401 26.9572C21.8602 27.7007 22.1118 28.3871 22.3406 28.9591C22.5866 29.5711 22.8611 30.2345 23.1814 30.9895C23.5532 31.8704 23.7419 32.6768 23.7591 33.449C23.7705 34.1296 23.7019 34.816 23.639 35.4737L23.6104 35.754C23.5475 36.3603 23.4788 37.081 23.4502 37.7902C23.4216 38.4136 23.4903 39.0028 23.6619 39.5404C23.8735 40.2096 24.2624 40.7759 24.8287 41.2163C24.3253 40.3812 24.0508 39.4203 24.0165 38.3564C23.9879 37.55 24.0966 36.7607 24.2167 36.0343C24.2624 35.7712 24.3025 35.5081 24.3539 35.245C24.4855 34.5071 24.6228 33.7407 24.68 32.98C24.7257 32.4023 24.7143 31.9047 24.6514 31.4414C24.5656 30.8408 24.3768 30.2746 24.1938 29.7198L24.1309 29.5367C23.9021 28.8561 23.6676 28.1526 23.6104 27.409C23.5589 26.8371 23.6504 26.3395 23.8678 25.8819C24.0908 25.43 24.4569 25.1841 24.9545 25.1555C25.3606 25.1269 25.7553 25.2184 26.1385 25.3042L26.3158 25.3442C26.739 25.4358 27.1909 25.533 27.6485 25.6074C27.7343 25.6245 27.82 25.6245 27.9001 25.6131C27.6084 25.5616 27.3339 25.4358 27.0765 25.3042C26.9907 25.2585 26.9106 25.2127 26.8248 25.1669C26.7791 25.1383 26.7276 25.1097 26.6761 25.0811C26.516 24.9896 26.3501 24.8981 26.1842 24.8066C25.7896 24.5835 25.3778 24.3605 24.9659 24.1546C24.6399 23.983 24.2681 23.8915 23.8735 23.8915Z" fill="#808285"/>
<path d="M33.2709 27.3967C33.3338 26.6474 33.0364 26.3386 32.3214 26.0983C31.8638 25.9439 31.3948 25.9725 30.9487 26.1155C30.3596 26.31 29.7819 26.5445 29.2042 26.7733C28.7638 26.9448 28.3234 27.1279 27.8486 27.2137C27.2023 27.3338 26.6361 27.2022 26.2014 26.676C26.1842 26.6589 26.1728 26.6417 26.1556 26.6188C26.3329 26.6817 26.4988 26.7618 26.6761 26.8076C27.1394 26.922 27.597 26.8533 28.0202 26.6646C28.4835 26.4587 28.9297 26.2242 29.3701 25.9725C29.942 25.6522 31.3262 24.3081 31.9382 24.0679C32.2871 23.8905 32.6817 23.799 33.0764 23.799C33.5054 23.7933 33.9057 23.9077 34.2661 24.1479C34.6607 24.4168 34.9753 24.7485 35.1641 25.2003C35.3986 25.7723 35.3871 26.3614 35.2899 26.962C35.1755 27.6598 34.9467 28.329 34.6836 28.981C34.4091 29.6617 34.1288 30.3423 33.8428 31.0115C33.5111 31.7837 33.288 32.5901 33.2766 33.4366C33.2594 34.2088 33.3509 34.9695 33.4253 35.7359C33.4939 36.4166 33.5511 37.0972 33.5854 37.7779C33.614 38.3784 33.5511 38.979 33.3681 39.5567C33.0936 40.4089 32.5616 41.0552 31.8181 41.5299C31.8295 41.5071 31.841 41.4899 31.8581 41.467C32.5044 40.529 32.8133 39.4766 32.8533 38.3441C32.8819 37.5662 32.7847 36.7998 32.6531 36.0391C32.4873 35.021 32.2756 34.0086 32.1899 32.9733C32.1498 32.4529 32.1441 31.9381 32.2185 31.4176C32.3042 30.817 32.493 30.2508 32.676 29.6788C32.9391 28.941 33.2022 28.1974 33.2709 27.3967Z" fill="#A7A9AC"/>
<path d="M31.635 41.7654L31.7552 41.5023C31.7666 41.4794 31.7838 41.4565 31.7952 41.4336C32.4129 40.5528 32.7389 39.5175 32.779 38.3507C32.8076 37.5614 32.7046 36.7893 32.5845 36.0629C32.5388 35.7998 32.493 35.5424 32.4472 35.2793C32.3157 34.53 32.1841 33.7636 32.1155 32.9914C32.0697 32.4023 32.0755 31.8875 32.1441 31.4185C32.2299 30.8122 32.4244 30.2288 32.6074 29.6683L32.676 29.4681C32.8991 28.8046 33.1279 28.1126 33.1851 27.3976C33.2423 26.7284 33.0249 26.4367 32.2928 26.185C31.881 26.0478 31.4291 26.0535 30.9773 26.2079C30.4797 26.3738 29.9821 26.5683 29.4959 26.757L29.1127 26.9114C28.7123 27.0659 28.3005 27.2317 27.8601 27.3118C27.1337 27.4434 26.556 27.2546 26.1385 26.7398C26.127 26.7284 26.1156 26.717 26.1099 26.6998L25.8982 26.4424L26.1842 26.5454C26.2414 26.5625 26.2929 26.5854 26.3444 26.6083C26.4645 26.654 26.5789 26.6998 26.699 26.7341C27.1108 26.8371 27.5512 26.7913 27.9974 26.5969C28.392 26.4195 28.8095 26.2079 29.3357 25.9105C29.576 25.7732 29.9706 25.4472 30.3824 25.104C30.9544 24.6293 31.5493 24.1374 31.9153 24.0001C32.2699 23.8171 32.6646 23.7256 33.0821 23.7256C33.5511 23.7256 33.9572 23.8457 34.3176 24.0916C34.758 24.3948 35.0668 24.7494 35.2441 25.1784C35.4558 25.6874 35.4958 26.248 35.3814 26.9858C35.2556 27.7465 34.9982 28.4443 34.7637 29.0277C34.5178 29.634 34.2432 30.2975 33.9229 31.0582C33.5569 31.9161 33.3738 32.6997 33.3624 33.4547C33.3509 34.1125 33.4139 34.7817 33.4825 35.4223L33.5111 35.7426C33.5912 36.5433 33.6426 37.1954 33.6712 37.7902C33.6998 38.4365 33.6255 39.0485 33.4482 39.5976C33.1794 40.4384 32.6474 41.119 31.8638 41.6167L31.635 41.7654ZM31.6865 25.9162C31.9153 25.9162 32.1384 25.9505 32.35 26.0249C33.0192 26.2537 33.4253 26.5625 33.3567 27.409C33.2995 28.1469 33.065 28.8447 32.8362 29.5253L32.7675 29.7255C32.5845 30.2803 32.4015 30.858 32.31 31.4471C32.2528 31.9047 32.2413 32.408 32.2871 32.9857C32.35 33.7521 32.4816 34.5186 32.6131 35.2564C32.6589 35.5195 32.7046 35.7769 32.7504 36.04C32.8705 36.7778 32.9792 37.5614 32.9448 38.3622C32.9105 39.426 32.6417 40.3869 32.1327 41.222C32.6932 40.7759 33.0821 40.2096 33.2995 39.5461C33.4711 39.0142 33.5454 38.4251 33.5168 37.7959C33.4882 37.2011 33.4367 36.5605 33.3567 35.7597L33.3281 35.4394C33.2651 34.7874 33.1965 34.1182 33.208 33.449C33.2251 32.6711 33.4081 31.8704 33.7799 30.9895C34.1002 30.2288 34.3805 29.5653 34.6207 28.9591C34.8495 28.3871 35.1069 27.7007 35.227 26.9572C35.3414 26.2537 35.3013 25.7275 35.1012 25.247C34.9296 24.8466 34.6493 24.5149 34.2318 24.2346C33.9 24.0116 33.5225 23.8972 33.1107 23.8972C32.6989 23.8972 32.3271 23.9887 31.9897 24.1603C31.6408 24.2976 31.0345 24.8009 30.4968 25.2413C30.0736 25.5902 29.6732 25.9219 29.4215 26.0649C28.8839 26.3623 28.4721 26.574 28.066 26.757C27.597 26.9686 27.1165 27.0144 26.6704 26.9C26.6075 26.8828 26.5446 26.86 26.4816 26.8428C26.842 27.1459 27.2881 27.2432 27.8429 27.1402C28.2605 27.0659 28.6723 26.9057 29.0612 26.7513L29.4501 26.5969C29.9306 26.4081 30.4339 26.2079 30.9315 26.042C31.1832 25.9562 31.4349 25.9162 31.6865 25.9162Z" fill="#808285"/>
<path d="M25.9497 39.8543C26.047 39.4997 26.1442 39.1393 26.23 38.779C26.3558 38.2242 26.4759 37.6637 26.596 37.1031C26.8191 36.0679 27.0422 35.0269 27.4483 34.0431C27.6942 33.4426 28.0031 32.882 28.4206 32.3844C28.4549 32.3444 28.4892 32.3043 28.5293 32.2757C28.6551 32.1728 28.7924 32.1728 28.8953 32.2986C28.9869 32.4073 29.0727 32.5217 29.1184 32.6532C29.2614 33.0593 29.393 33.4711 29.5131 33.883C29.6789 34.4378 29.8276 34.9983 29.9878 35.5645C29.8963 35.3701 29.8105 35.1813 29.7304 34.9869C29.5874 34.6608 29.4559 34.3291 29.3129 34.0088C29.2557 33.883 29.1813 33.7629 29.0955 33.6542C28.9411 33.4597 28.7924 33.454 28.6208 33.6313C28.1518 34.1232 27.8029 34.6952 27.5226 35.3072C27.1394 36.1308 26.8935 37.0002 26.6246 37.8696C26.4302 38.4873 26.2243 39.105 26.0184 39.717C26.0012 39.7628 25.984 39.8028 25.9612 39.8428C25.9497 39.8543 25.9497 39.8543 25.9497 39.8543Z" fill="#A7A9AC"/>
<path d="M25.9955 39.9744L25.9325 39.9401H25.841L25.9497 39.5283C26.0183 39.2709 26.087 39.0192 26.1442 38.7618C26.2814 38.1842 26.4073 37.5779 26.5102 37.0917C26.7161 36.1251 26.9506 35.0269 27.3625 34.0145C27.637 33.3511 27.9573 32.802 28.3462 32.333C28.3863 32.2872 28.4263 32.2472 28.4721 32.2128C28.6322 32.0813 28.8267 32.0985 28.9525 32.2472C29.0326 32.3444 29.1356 32.476 29.187 32.6304C29.3186 32.9907 29.4444 33.3854 29.5874 33.8658C29.6846 34.2147 29.7819 34.5579 29.8791 34.9068C29.9363 35.1184 29.9992 35.3358 30.0621 35.5474L29.902 35.6103C29.8162 35.4159 29.7247 35.2271 29.6446 35.0269C29.5817 34.8896 29.5302 34.7467 29.4673 34.6094C29.3872 34.4206 29.3129 34.2376 29.2271 34.0546C29.1756 33.9459 29.1012 33.8315 29.0212 33.7171C28.901 33.5627 28.8038 33.5627 28.6665 33.7057C28.2433 34.1461 27.8944 34.6837 27.5798 35.3529C27.2595 36.045 27.0307 36.7828 26.8134 37.4978L26.6875 37.9039C26.5446 38.35 26.4016 38.7904 26.2528 39.2309L26.0755 39.7571C26.0698 39.7914 26.0527 39.8257 26.0355 39.86L25.9955 39.9744ZM28.7066 32.2929C28.6665 32.2929 28.6208 32.3101 28.5807 32.3501C28.5407 32.3787 28.5121 32.4188 28.4778 32.4531C28.1003 32.9049 27.7914 33.4369 27.5226 34.0889C27.1108 35.0841 26.882 36.1766 26.6761 37.1375C26.6132 37.412 26.5503 37.7209 26.4816 38.0469C26.4988 37.9897 26.516 37.9268 26.5331 37.8696L26.6589 37.4635C26.882 36.7428 27.1108 35.9993 27.4368 35.2957C27.7571 34.6037 28.1232 34.0489 28.5521 33.597C28.7638 33.3797 28.9754 33.3854 29.1584 33.6199C29.2499 33.74 29.33 33.8658 29.3872 33.9859C29.4559 34.1346 29.513 34.2834 29.576 34.4264C29.5245 34.2548 29.4787 34.0832 29.4273 33.9173C29.2843 33.4369 29.1641 33.0479 29.0326 32.6876C28.9868 32.5617 28.901 32.4416 28.8267 32.3558C28.7867 32.3158 28.7466 32.2929 28.7066 32.2929Z" fill="#808285"/>
</svg>
