<svg width="25" height="24" viewBox="0 0 25 24" fill="none" xmlns="http://www.w3.org/2000/svg">
<path fill-rule="evenodd" clip-rule="evenodd"
      d="M3.00415 3.77303C3.00415 3.41032 3.37825 3.16829 3.70909 3.31696L22.0177 11.5441C22.4111 11.7209 22.4111 12.2795 22.0177 12.4563L3.70909 20.6834C3.37824 20.8321 3.00415 20.5901 3.00415 20.2273V13.5002L19.0269 12.0002L3.00415 10.5002V3.77303Z" fill="#FFFFFF"/>
</svg>
